…
# Conducting paired t-test

``` r
average_duration[average_duration$dominant == 'synchronous',]
```

    ## # A tibble: 54 × 3
    ## # Groups:   subject [54]
    ##    subject dominant    average_duration
    ##      <int> <chr>                  <dbl>
    ##  1       1 synchronous             1.74
    ##  2       2 synchronous             3.20
    ##  3       3 synchronous             3.91
    ##  4       4 synchronous             3.73
    ##  5       5 synchronous             2.83
    ##  6       6 synchronous             1.21
    ##  7       7 synchronous             1.62
    ##  8       8 synchronous             4.21
    ##  9       9 synchronous             1.89
    ## 10      10 synchronous             9.63
    ## # ℹ 44 more rows
…
